Quantitative Text Analysis - Reading, inspecting, and writing datasets
…
R objects: Tibble

The read_csv() function returns a tibble, which is a type of R object that is similar to a data frame, but has some nice user-friendly features.

Prints the dimensions of the data frame

Prints the vector type of each column (variable)

Only prints first 10 rows

Only prints the columns that fit on the screen

vss_df

# A tibble: 8,043 × 6
   story sentence word        pos   lemma       nchar
   <chr>    <dbl> <chr>       <chr> <chr>       <dbl>
 1 264          1 The         DT    the             3
 2 264          1 constant    JJ    constant        8
 3 264          1 hum         NN    hum             3
 4 264          1 of          IN    of              2
 5 264          1 the         DT    the             3
 6 264          1 Toshiba     NP    toshiba         7
 7 264          1 DM-707/40   CD    dm-707/40       9
 8 264          1 fully       RB    fully           5
 9 264          1 integrated  VBN   integrate      10
10 264          1 alarm-clock NN    alarm-clock    11
# ℹ 8,033 more rows
…
Use the keyboard short:  to insert the |> operator.

Select columns and/or rows

The select() function selects columns (variables) from the data frame. The filter() function selects rows based on the values of a column.

# Filter rows
vss_df |>
  filter(nchar > 10)

# A tibble: 160 × 6
   story sentence word             pos   lemma            nchar
   <chr>    <dbl> <chr>            <chr> <chr>            <dbl>
 1 264          1 alarm-clock      NN    alarm-clock         11
 2 264          1 mercilessly      RB    mercilessly         11
 3 264          2 resemblance      NN    resemblance         11
 4 264          3 alarm-clock      NN    alarm-clock         11
 5 264          7 communicated     VBD   communicate         12
 6 264          8 state-of-the-art JJ    state-of-the-art    16
 7 264          8 alarm-clock      NN    alarm-clock         11
 8 264         16 recognition      NN    recognition         11
 9 264         17 pronunciations   NNS   pronunciation       14
10 264         17 interspersed     VBN   intersperse         12
# ℹ 150 more rows

# Select columns
vss_df |>
  filter(pos == "NN") |>
  select(sentence, word)

# A tibble: 1,101 × 2
   sentence word       
      <dbl> <chr>      
 1        1 hum        
 2        1 alarm-clock
 3        1 sleep      
 4        2 side       
 5        2 sound      
 6        2 resemblance
 7        2 equivalent 
 8        3 alarm-clock
 9        3 volume     
10        3 hum        
# ℹ 1,091 more rows
…
